{
    "test": "./queries/boilerplate",
    "signup": "./queries/signup",
    "signin": "./queries/signin",
    "getArticles": "./queries/get-articles",
    "getArticleById": "./queries/get-article-by-id",
    "getCommentsTree": "./queries/get-article-comments",
    "getCategories": "./queries/get-categories",
    "getUpvotesList": "./queries/get-upvotes-list",
    "addComment": "./queries/add-comment",
    "deleteComment": "./queries/delete-comment",
    "rateArticle": "./queries/rate-article",
    "rateComment": "./queries/rate-comment",
    "addArticle": "./queries/add-article",
    "updateArticle": "./queries/update-article",
    "deleteArticle": "./queries/delete-article",
    "editArticle": "./queries/edit-article",
    "banUser": "./queries/ban-user"
}